Start Position: X = 0 und Y = 3
action: 0	reward: -1.0
action: 1	reward: -1.0
action: 2	reward: -1.0
action: 0	reward: -1.0
action: 1	reward: -1.0
action: 0	reward: -1.0
action: 1	reward: -1.0
action: 2	reward: -1.0
action: 2	reward: -1.0
action: 2	reward: 1000.0
End

Start Position: X = 5 und Y = 7
action: 1	reward: -10
action: 1	reward: -10
action: 0	reward: -1.0
action: 0	reward: -1.0
action: 0	reward: -1.0
action: 3	reward: -1.0
action: 0	reward: -1.0
action: 2	reward: -1.0
action: 3	reward: 1000.0
End

